{"estimationTopics": [
  {
    "name": "implementation",
    "label": "Code implementations (endpoints, Airflow, models, queries, etc)",
    "examples": [
      "no change",
      "Add authorization check (one if condition added)",
      "Implement GetEntityMetadata (just return statement) and showing it in FE",
      "Parse a simple CSV file in airline UpdateAirlineData endpoint and expose it to cargo.drive",
      "",
      "Add an attribute to shipment model and update 3 airlines and 3 FEs to work with it",
      "",
      "",
      "6 endpoints deep changes (i.e. link sharing)"
    ]
  },
  {
    "name": "backend",
    "label": "Backend API changes (protos)",
    "examples": [
      "no change",
      "Small amount of API changes (e.g. 2 new attributes in a message)",
      "Considerable amount of API changes (e.g. 5 new messages, including nested ones)",
      "Huge amount of API changes (e.g. 2 new airlines at the same time + 2 new airline-specific additional data messages)"
    ]
  },
  {
    "name": "migrations",
    "label": "Migrations",
    "examples": [
      "no change",
      "Simple schema migration changes to 1 DB, adding one or more fields",
      "Simple schema migration changes, adding one or more fields to more than one DB",
      "Any change that would require, long running, re-indexing of existing data",
      "Multi step schema changes requiring new fields and deprecating old ones.",
      "Complex changes to more than one schema in all service DBs"
    ]
  },
  {
    "name": "data_migrations",
    "label": "Data migrations",
    "examples": [
      "no change",
      "Populate all NULL rows with a default value",
      "",
      "",
      "",
      "Migration from stations to organizations from HubSpot (third-party system)"
    ]
  },
  {
    "name": "testing",
    "label": "Automated testing",
    "examples": [
      "no change",
      "Creating or updating few test scenarios (e.g. 2 new integration tests + 1 new unit test)",
      "Creating or updating several test scenarios (e.g. 3 new integration tests + slight change to e2e test + update 2 unit tests)",
      "Creating or updating a lot of test scenarios (e.g. 5 new integration tests + 2 updated integration tests + 4 new unit tests)"
    ]
  },
  {
    "name": "manual_testing",
    "label": "External dependency on manual testing",
    "examples": [
      "no change",
      "Feature branch on staging for someone to test (if we think there will be challenges with running the test and/or follow-ups and coordination with an engineer are required)"
    ]
  },
  {
    "name": "risk",
    "label": "Risk",
    "examples": [
      "no change",
      "Slight risk",
      "A lot of risk, we are very uncertain"
    ]
  },
  {
    "name": "complexity",
    "label": "Complexity",
    "examples": [
      "no change",
      "There might be hidden complexities",
      "",
      "We need a design document"
    ]
  },
  {
    "name": "pets",
    "label": "Pets",
    "examples": [
      "No pets around, sadly",
      "Gently begging for food or attention",
      "Is sitting in front of you, hiding your screen",
      "Jumping on your keyboard, writing something on Slack, and its jokes are better than yours",
      "Deploys its own branch of offer-service to production while you are away, and everything is so much faster and stable!",
      "Your pet rewrites everything in Rust, even the frontend 🤯"
    ]
  }
]}
